R para Ciencia de Datos en Salud 3 - Taller: Descripción de variables de tiempo
…
R tidy con survfit2(), tidy_survfit() de {ggsurvfit}

Código

tabla_vida2 <- survfit2(Surv(tseg, muerte) ~  1, data = ebola_data_small2)

Tabla de vida con estimados de supervivencia acumulada:

Código

tidy_survfit(tabla_vida2)

# A tibble: 59 × 14
    time n.risk n.event n.censor cum.e…¹ cum.c…² estim…³ std.e…⁴ conf.…⁵ conf.…⁶
   <dbl>  <dbl>   <dbl>    <dbl>   <dbl>   <dbl>   <dbl>   <dbl>   <dbl>   <dbl>
 1     0   3499       0        0       0       0   1     0         1       1    
 2     1   3499      30        5      30       5   0.991 0.00157   0.994   0.988
 3     2   3464      69       10      99      15   0.972 0.00289   0.977   0.966
 4     3   3385     149       20     248      35   0.929 0.00468   0.937   0.920
 5     4   3216     194       33     442      68   0.873 0.00647   0.884   0.862
 6     5   2989     214       28     656      96   0.810 0.00823   0.824   0.797
 7     6   2747     210       67     866     163   0.748 0.00989   0.763   0.734
 8     7   2470     179       59    1045     222   0.694 0.0114    0.710   0.679
 9     8   2232     167       73    1212     295   0.642 0.0129    0.659   0.626
10     9   1992     145       75    1357     370   0.595 0.0143    0.612   0.579
# … with 49 more rows, 4 more variables: estimate_type <chr>,
#   estimate_type_label <chr>, monotonicity_type <chr>, conf.level <dbl>, and
#   abbreviated variable names ¹​cum.event, ²​cum.censor, ³​estimate, ⁴​std.error,
#   ⁵​conf.high, ⁶​conf.low
# ℹ Use `print(n = ...)` to see more rows, and `colnames()` to see all variable names

Tabla de vida con estimados de incidencia acumulada:

Código

tidy_survfit(tabla_vida2, type = "risk")

# A tibble: 59 × 14
    time n.risk n.event n.censor cum.e…¹ cum.c…² estim…³ std.e…⁴ conf.…⁵ conf.…⁶
   <dbl>  <dbl>   <dbl>    <dbl>   <dbl>   <dbl>   <dbl>   <dbl>   <dbl>   <dbl>
 1     0   3499       0        0       0       0 0       0       0        0     
 2     1   3499      30        5      30       5 0.00857 0.00157 0.00551  0.0116
 3     2   3464      69       10      99      15 0.0283  0.00289 0.0228   0.0338
 4     3   3385     149       20     248      35 0.0711  0.00468 0.0625   0.0796
 5     4   3216     194       33     442      68 0.127   0.00647 0.116    0.138 
 6     5   2989     214       28     656      96 0.190   0.00823 0.176    0.203 
 7     6   2747     210       67     866     163 0.252   0.00989 0.237    0.266 
 8     7   2470     179       59    1045     222 0.306   0.0114  0.290    0.321 
 9     8   2232     167       73    1212     295 0.358   0.0129  0.341    0.374 
10     9   1992     145       75    1357     370 0.405   0.0143  0.388    0.421 
# … with 49 more rows, 4 more variables: estimate_type <chr>,
#   estimate_type_label <chr>, monotonicity_type <chr>, conf.level <dbl>, and
#   abbreviated variable names ¹​cum.event, ²​cum.censor, ³​estimate, ⁴​std.error,
#   ⁵​conf.high, ⁶​conf.low
# ℹ Use `print(n = ...)` to see more rows, and `colnames()` to see all variable names

Solo extraer tiempo, n.event, n.risk y estimado de IA

Código

tidy_survfit(tabla_vida2, type = "risk") %>% 
  select(time, n.event, n.risk, estimate)

# A tibble: 59 × 4
    time n.event n.risk estimate
   <dbl>   <dbl>  <dbl>    <dbl>
 1     0       0   3499  0      
 2     1      30   3499  0.00857
 3     2      69   3464  0.0283 
 4     3     149   3385  0.0711 
 5     4     194   3216  0.127  
 6     5     214   2989  0.190  
 7     6     210   2747  0.252  
 8     7     179   2470  0.306  
 9     8     167   2232  0.358  
10     9     145   1992  0.405  
# … with 49 more rows
# ℹ Use `print(n = ...)` to see more rows

Código

tidy_survfit(tabla_vida2, type = "risk") -> tabla_de_vida_resultado

Código

tabla_de_vida_resultado %>% 
  select(time, n.event, n.risk, estimate) %>% 
  mutate(estimate = estimate * 1000)

# A tibble: 59 × 4
    time n.event n.risk estimate
   <dbl>   <dbl>  <dbl>    <dbl>
 1     0       0   3499     0   
 2     1      30   3499     8.57
 3     2      69   3464    28.3 
 4     3     149   3385    71.1 
 5     4     194   3216   127.  
 6     5     214   2989   190.  
 7     6     210   2747   252.  
 8     7     179   2470   306.  
 9     8     167   2232   358.  
10     9     145   1992   405.  
# … with 49 more rows
# ℹ Use `print(n = ...)` to see more rows
…
