Taller: Descripción de variables de tiempo
…
R tidy con survfit2(), tidy_survfit() de {ggsurvfit}

tabla_vida2 <- survfit2(Surv(tseg, muerte) ~  1, data = ebola_data_small2)

Tabla de vida con estimados de supervivencia acumulada:

tidy_survfit(tabla_vida2)

# A tibble: 59 × 14
    time n.risk n.event n.censor cum.event cum.censor estimate std.error
   <dbl>  <dbl>   <dbl>    <dbl>     <dbl>      <dbl>    <dbl>     <dbl>
 1     0   3499       0        0         0          0    1       0      
 2     1   3499      30        5        30          5    0.991   0.00157
 3     2   3464      69       10        99         15    0.972   0.00289
 4     3   3385     149       20       248         35    0.929   0.00468
 5     4   3216     194       33       442         68    0.873   0.00647
 6     5   2989     214       28       656         96    0.810   0.00823
 7     6   2747     210       67       866        163    0.748   0.00989
 8     7   2470     179       59      1045        222    0.694   0.0114 
 9     8   2232     167       73      1212        295    0.642   0.0129 
10     9   1992     145       75      1357        370    0.595   0.0143 
# … with 49 more rows, and 6 more variables: conf.high <dbl>, conf.low <dbl>,
#   estimate_type <chr>, estimate_type_label <chr>, monotonicity_type <chr>,
#   conf.level <dbl>

Tabla de vida con estimados de incidencia acumulada:

tidy_survfit(tabla_vida2, type = "risk")

# A tibble: 59 × 14
    time n.risk n.event n.censor cum.event cum.censor estimate std.error
   <dbl>  <dbl>   <dbl>    <dbl>     <dbl>      <dbl>    <dbl>     <dbl>
 1     0   3499       0        0         0          0  0         0      
 2     1   3499      30        5        30          5  0.00857   0.00157
 3     2   3464      69       10        99         15  0.0283    0.00289
 4     3   3385     149       20       248         35  0.0711    0.00468
 5     4   3216     194       33       442         68  0.127     0.00647
 6     5   2989     214       28       656         96  0.190     0.00823
 7     6   2747     210       67       866        163  0.252     0.00989
 8     7   2470     179       59      1045        222  0.306     0.0114 
 9     8   2232     167       73      1212        295  0.358     0.0129 
10     9   1992     145       75      1357        370  0.405     0.0143 
# … with 49 more rows, and 6 more variables: conf.high <dbl>, conf.low <dbl>,
#   estimate_type <chr>, estimate_type_label <chr>, monotonicity_type <chr>,
#   conf.level <dbl>

Solo extraer tiempo, n.event, n.risk y estimado de IA

tidy_survfit(tabla_vida2, type = "risk") %>% 
  select(time, n.event, n.risk, estimate)

# A tibble: 59 × 4
    time n.event n.risk estimate
   <dbl>   <dbl>  <dbl>    <dbl>
 1     0       0   3499  0      
 2     1      30   3499  0.00857
 3     2      69   3464  0.0283 
 4     3     149   3385  0.0711 
 5     4     194   3216  0.127  
 6     5     214   2989  0.190  
 7     6     210   2747  0.252  
 8     7     179   2470  0.306  
 9     8     167   2232  0.358  
10     9     145   1992  0.405  
# … with 49 more rows

tidy_survfit(tabla_vida2, type = "risk") -> tabla_de_vida_resultado

tabla_de_vida_resultado %>% 
  select(time, n.event, n.risk, estimate) %>% 
  mutate(estimate = estimate * 1000)

# A tibble: 59 × 4
    time n.event n.risk estimate
   <dbl>   <dbl>  <dbl>    <dbl>
 1     0       0   3499     0   
 2     1      30   3499     8.57
 3     2      69   3464    28.3 
 4     3     149   3385    71.1 
 5     4     194   3216   127.  
 6     5     214   2989   190.  
 7     6     210   2747   252.  
 8     7     179   2470   306.  
 9     8     167   2232   358.  
10     9     145   1992   405.  
# … with 49 more rows
…
