R para Ciencia de Datos en Salud 3 - Mi primer manejo de datos
…
library(labelled)
library(haven)

Importar datos

Tip: Como es archivo Stata, use read_stata() junto con as_factor() para recuperar metadatos.

Código

datos <- read_stata("maca_meno_fase1.dta") %>% 
  as_factor()

datos

# A tibble: 106 × 14
      id time     treat    age race  married marri…¹ proce…² weight height    e2
   <dbl> <fct>    <fct>  <dbl> <chr> <fct>   <fct>   <chr>    <dbl>  <dbl> <dbl>
 1     1 Baseline Place…    33 Mest… Single  Withou… Callao    59      1.4  87.3
 2     1 3 months Place…    32 Mest… Single  Withou… Callao    59.9    1.3 210. 
 3     2 Baseline Dosis…    27 Mest… Single  Withou… Santa …   62      1.5 169. 
 4     2 3 months Dosis…    27 Mest… Single  Withou… Santa …   62.1    1.6  99.9
 5     3 Baseline Dosis…    25 Mest… Single  Withou… Callao    62      1.6  78.8
 6     3 3 months Dosis…    25 Mest… Single  Withou… Callao    60      1.6 155. 
 7     4 Baseline Dosis…    37 Mest… Divorc… Withou… Callao    60.9    1.5  41.0
 8     4 3 months Dosis…    38 Mest… Divorc… Withou… Callao    61.4    1.5 109. 
 9     5 Baseline Place…    31 Mest… Single  Withou… La Mol…   64      1.5  43.0
10     5 3 months Place…    32 Mest… Single  Withou… La Mol…   58.1    1.6  56.0
# … with 96 more rows, 3 more variables: lh <dbl>, fsh <dbl>, prog <dbl>, and
#   abbreviated variable names ¹​married2, ²​procedence
# ℹ Use `print(n = ...)` to see more rows, and `colnames()` to see all variable names

Filtre al grupo tratado placebo y guardelo como datos2. Imprima datos2

Tip: Use filter()

Código

datos %>% 
  filter(treat == "Placebo") -> datos2

datos2

# A tibble: 34 × 14
      id time     treat    age race  married marri…¹ proce…² weight height    e2
   <dbl> <fct>    <fct>  <dbl> <chr> <fct>   <fct>   <chr>    <dbl>  <dbl> <dbl>
 1     1 Baseline Place…    33 Mest… Single  Withou… Callao    59      1.4  87.3
 2     1 3 months Place…    32 Mest… Single  Withou… Callao    59.9    1.3 210. 
 3     5 Baseline Place…    31 Mest… Single  Withou… La Mol…   64      1.5  43.0
 4     5 3 months Place…    32 Mest… Single  Withou… La Mol…   58.1    1.6  56.0
 5     6 Baseline Place…    38 Mest… Married With c… Los Ol…   54.5    1.5  36.2
 6     6 3 months Place…    38 Mest… Married With c… Los Ol…   53.9    1.5  44.7
 7     8 Baseline Place…    34 Mest… Married With c… Caraba…   64      1.5  65.6
 8     8 3 months Place…    34 Mest… Married With c… Caraba…   59      1.5 134. 
 9    10 Baseline Place…    38 Mest… Single  Withou… Pueblo…   56.1    1.7 115. 
10    10 3 months Place…    38 Mest… Single  Withou… Pueblo…   54.9    1.5  71.5
# … with 24 more rows, 3 more variables: lh <dbl>, fsh <dbl>, prog <dbl>, and
#   abbreviated variable names ¹​married2, ²​procedence
# ℹ Use `print(n = ...)` to see more rows, and `colnames()` to see all variable names

Filtre a quienes tienen edad > 27 y menor de 33 sin guardarlo, solo imprimalo:

Tip: Use filter()

Código

datos %>% 
  filter(age > 27 & age < 33) 

# A tibble: 25 × 14
      id time     treat    age race  married marri…¹ proce…² weight height    e2
   <dbl> <fct>    <fct>  <dbl> <chr> <fct>   <fct>   <chr>    <dbl>  <dbl> <dbl>
 1     1 3 months Place…    32 Mest… Single  Withou… Callao    59.9    1.3 210. 
 2     5 Baseline Place…    31 Mest… Single  Withou… La Mol…   64      1.5  43.0
 3     5 3 months Place…    32 Mest… Single  Withou… La Mol…   58.1    1.6  56.0
 4     9 Baseline Dosis…    30 Mest… Single  Withou… SMP       61      1.6  49.6
 5     9 3 months Dosis…    30 Mest… Single  Withou… SMP       63.1    1.7  46.3
 6    16 Baseline Dosis…    30 Mest… Single  Withou… Los Ol…   56      1.5  81.0
 7    16 3 months Dosis…    30 Mest… Single  Withou… Los Ol…   55.9    1.5  73.1
 8    21 Baseline Place…    29 Mest… Married With c… SJL       56.9    1.4  71.6
 9    21 3 months Place…    29 Mest… Married With c… SJL       57.1    1.5  29.6
10    26 Baseline Place…    32 Mest… Married With c… Chosica   72.1    1.7 117. 
# … with 15 more rows, 3 more variables: lh <dbl>, fsh <dbl>, prog <dbl>, and
#   abbreviated variable names ¹​married2, ²​procedence
# ℹ Use `print(n = ...)` to see more rows, and `colnames()` to see all variable names

Selecciona las variables id, treat, age y married. Guarde como data3 e imprima.

Código

datos %>% 
  select(id, treat, age, married) -> data3

data3

# A tibble: 106 × 4
      id treat     age married 
   <dbl> <fct>   <dbl> <fct>   
 1     1 Placebo    33 Single  
 2     1 Placebo    32 Single  
 3     2 Dosis 2    27 Single  
 4     2 Dosis 2    27 Single  
 5     3 Dosis 1    25 Single  
 6     3 Dosis 1    25 Single  
 7     4 Dosis 1    37 Divorced
 8     4 Dosis 1    38 Divorced
 9     5 Placebo    31 Single  
10     5 Placebo    32 Single  
# … with 96 more rows
# ℹ Use `print(n = ...)` to see more rows

Elimine las variables married2 y weight. No guarde solo imprima.

Código

datos %>% 
  select(-married2, -weight)

# A tibble: 106 × 12
      id time   treat   age race  married proce…¹ height    e2    lh   fsh  prog
   <dbl> <fct>  <fct> <dbl> <chr> <fct>   <chr>    <dbl> <dbl> <dbl> <dbl> <dbl>
 1     1 Basel… Plac…    33 Mest… Single  Callao     1.4  87.3  3.28  1.95 14.2 
 2     1 3 mon… Plac…    32 Mest… Single  Callao     1.3 210.  26.8   8.83 13.0 
 3     2 Basel… Dosi…    27 Mest… Single  Santa …    1.5 169.   6.34  4.32  0.5 
 4     2 3 mon… Dosi…    27 Mest… Single  Santa …    1.6  99.9  5.77  1.7   9.61
 5     3 Basel… Dosi…    25 Mest… Single  Callao     1.6  78.8 11.9   2.81 10.5 
 6     3 3 mon… Dosi…    25 Mest… Single  Callao     1.6 155.  10.1   4.51  5.04
 7     4 Basel… Dosi…    37 Mest… Divorc… Callao     1.5  41.0  4.57  3.81  4.64
 8     4 3 mon… Dosi…    38 Mest… Divorc… Callao     1.5 109.   7.29  2.39 11.7 
 9     5 Basel… Plac…    31 Mest… Single  La Mol…    1.5  43.0  7.81  2.01 15.1 
10     5 3 mon… Plac…    32 Mest… Single  La Mol…    1.6  56.0  9.15  3.66 11.5 
# … with 96 more rows, and abbreviated variable name ¹​procedence
# ℹ Use `print(n = ...)` to see more rows

Seleccione id, time y race y married2. Luego, filtre por status marital sin pareja.

Código

datos %>% 
  select(id, time, race, married2) %>% 
  filter(married2 == "Without couple")

# A tibble: 54 × 4
      id time     race    married2      
   <dbl> <fct>    <chr>   <fct>         
 1     1 Baseline Mestiza Without couple
 2     1 3 months Mestiza Without couple
 3     2 Baseline Mestiza Without couple
 4     2 3 months Mestiza Without couple
 5     3 Baseline Mestiza Without couple
 6     3 3 months Mestiza Without couple
 7     4 Baseline Mestiza Without couple
 8     4 3 months Mestiza Without couple
 9     5 Baseline Mestiza Without couple
10     5 3 months Mestiza Without couple
# … with 44 more rows
# ℹ Use `print(n = ...)` to see more rows

Seleccione id, treat, weight y height. Luego, calcule el indice de masa corporal. Guarde como data4 e imprima. Llame a esta variable imc.

Tip: Anide select() con mutate()

Código

data4 <- datos %>% 
  select(id, treat, weight, height) %>% 
  mutate(imc = weight / height ^ 2) # ^ : ALT + 94

data4

# A tibble: 106 × 5
      id treat   weight height   imc
   <dbl> <fct>    <dbl>  <dbl> <dbl>
 1     1 Placebo   59      1.4  30.1
 2     1 Placebo   59.9    1.3  35.4
 3     2 Dosis 2   62      1.5  27.6
 4     2 Dosis 2   62.1    1.6  24.3
 5     3 Dosis 1   62      1.6  24.2
 6     3 Dosis 1   60      1.6  23.4
 7     4 Dosis 1   60.9    1.5  27.1
 8     4 Dosis 1   61.4    1.5  27.3
 9     5 Placebo   64      1.5  28.4
10     5 Placebo   58.1    1.6  22.7
# … with 96 more rows
# ℹ Use `print(n = ...)` to see more rows
…
Código

datos %>% 
  mutate(
    edad_cat = case_when(
      age >= 20 & age <= 25 ~ "20-25 años", 
      age >= 26 & age <= 35 ~ "26-35 años", 
      age >= 36 & age <= 41 ~ "36-41 años", 
      TRUE ~ as.character(NA)
    )
  ) -> data5

data5

# A tibble: 106 × 15
      id time     treat    age race  married marri…¹ proce…² weight height    e2
   <dbl> <fct>    <fct>  <dbl> <chr> <fct>   <fct>   <chr>    <dbl>  <dbl> <dbl>
 1     1 Baseline Place…    33 Mest… Single  Withou… Callao    59      1.4  87.3
 2     1 3 months Place…    32 Mest… Single  Withou… Callao    59.9    1.3 210. 
 3     2 Baseline Dosis…    27 Mest… Single  Withou… Santa …   62      1.5 169. 
 4     2 3 months Dosis…    27 Mest… Single  Withou… Santa …   62.1    1.6  99.9
 5     3 Baseline Dosis…    25 Mest… Single  Withou… Callao    62      1.6  78.8
 6     3 3 months Dosis…    25 Mest… Single  Withou… Callao    60      1.6 155. 
 7     4 Baseline Dosis…    37 Mest… Divorc… Withou… Callao    60.9    1.5  41.0
 8     4 3 months Dosis…    38 Mest… Divorc… Withou… Callao    61.4    1.5 109. 
 9     5 Baseline Place…    31 Mest… Single  Withou… La Mol…   64      1.5  43.0
10     5 3 months Place…    32 Mest… Single  Withou… La Mol…   58.1    1.6  56.0
# … with 96 more rows, 4 more variables: lh <dbl>, fsh <dbl>, prog <dbl>,
#   edad_cat <chr>, and abbreviated variable names ¹​married2, ²​procedence
# ℹ Use `print(n = ...)` to see more rows, and `colnames()` to see all variable names

Cree una variable nueva llamada elegibilidad, que tenga dos valores: elegible cuando el estado marital es con pareja, no proceda de Callao y tenga IMC mayor a 20, caso contrario, denominarlo no elegible.

Código

datos %>% 
  mutate(
    imc = weight / height ^ 2, 
    elegibilidad = case_when(
      married2 == "With couple" & procedence != "Callao" & imc > 20 ~ "Elegible", 
      TRUE ~ "No elegible"
    )
  )

# A tibble: 106 × 16
      id time     treat    age race  married marri…¹ proce…² weight height    e2
   <dbl> <fct>    <fct>  <dbl> <chr> <fct>   <fct>   <chr>    <dbl>  <dbl> <dbl>
 1     1 Baseline Place…    33 Mest… Single  Withou… Callao    59      1.4  87.3
 2     1 3 months Place…    32 Mest… Single  Withou… Callao    59.9    1.3 210. 
 3     2 Baseline Dosis…    27 Mest… Single  Withou… Santa …   62      1.5 169. 
 4     2 3 months Dosis…    27 Mest… Single  Withou… Santa …   62.1    1.6  99.9
 5     3 Baseline Dosis…    25 Mest… Single  Withou… Callao    62      1.6  78.8
 6     3 3 months Dosis…    25 Mest… Single  Withou… Callao    60      1.6 155. 
 7     4 Baseline Dosis…    37 Mest… Divorc… Withou… Callao    60.9    1.5  41.0
 8     4 3 months Dosis…    38 Mest… Divorc… Withou… Callao    61.4    1.5 109. 
 9     5 Baseline Place…    31 Mest… Single  Withou… La Mol…   64      1.5  43.0
10     5 3 months Place…    32 Mest… Single  Withou… La Mol…   58.1    1.6  56.0
# … with 96 more rows, 5 more variables: lh <dbl>, fsh <dbl>, prog <dbl>,
#   imc <dbl>, elegibilidad <chr>, and abbreviated variable names ¹​married2,
#   ²​procedence
# ℹ Use `print(n = ...)` to see more rows, and `colnames()` to see all variable names
…
datos %>% 
  mutate(
    imc = weight / height ^ 2, 
    imc_cat = case_when(
      imc < 18.5 ~ "<18.5 (Bajo peso)", 
      imc >= 18.5 & imc < 25 ~ "18.5 a 24.9 (peso normal)", 
      imc >= 25 & imc < 30 ~ "25-29.9 (sobrepeso)", 
      imc >= 30 ~ "30+ (obeso)"
    )
  ) -> data6

data6

# A tibble: 106 × 16
      id time     treat    age race  married marri…¹ proce…² weight height    e2
   <dbl> <fct>    <fct>  <dbl> <chr> <fct>   <fct>   <chr>    <dbl>  <dbl> <dbl>
 1     1 Baseline Place…    33 Mest… Single  Withou… Callao    59      1.4  87.3
 2     1 3 months Place…    32 Mest… Single  Withou… Callao    59.9    1.3 210. 
 3     2 Baseline Dosis…    27 Mest… Single  Withou… Santa …   62      1.5 169. 
 4     2 3 months Dosis…    27 Mest… Single  Withou… Santa …   62.1    1.6  99.9
 5     3 Baseline Dosis…    25 Mest… Single  Withou… Callao    62      1.6  78.8
 6     3 3 months Dosis…    25 Mest… Single  Withou… Callao    60      1.6 155. 
 7     4 Baseline Dosis…    37 Mest… Divorc… Withou… Callao    60.9    1.5  41.0
 8     4 3 months Dosis…    38 Mest… Divorc… Withou… Callao    61.4    1.5 109. 
 9     5 Baseline Place…    31 Mest… Single  Withou… La Mol…   64      1.5  43.0
10     5 3 months Place…    32 Mest… Single  Withou… La Mol…   58.1    1.6  56.0
# … with 96 more rows, 5 more variables: lh <dbl>, fsh <dbl>, prog <dbl>,
#   imc <dbl>, imc_cat <chr>, and abbreviated variable names ¹​married2,
#   ²​procedence
# ℹ Use `print(n = ...)` to see more rows, and `colnames()` to see all variable names

Coloque etiquetas a imc y a imc_cat para que otro investigador entienda su significado.

Código

data6 %>% 
  set_variable_labels(
    imc = "Índice de Masa Corporal (kg/m2)", 
    imc_cat = "Categoría de IMC según OMS"
  ) -> data7

data7

# A tibble: 106 × 16
      id time     treat    age race  married marri…¹ proce…² weight height    e2
   <dbl> <fct>    <fct>  <dbl> <chr> <fct>   <fct>   <chr>    <dbl>  <dbl> <dbl>
 1     1 Baseline Place…    33 Mest… Single  Withou… Callao    59      1.4  87.3
 2     1 3 months Place…    32 Mest… Single  Withou… Callao    59.9    1.3 210. 
 3     2 Baseline Dosis…    27 Mest… Single  Withou… Santa …   62      1.5 169. 
 4     2 3 months Dosis…    27 Mest… Single  Withou… Santa …   62.1    1.6  99.9
 5     3 Baseline Dosis…    25 Mest… Single  Withou… Callao    62      1.6  78.8
 6     3 3 months Dosis…    25 Mest… Single  Withou… Callao    60      1.6 155. 
 7     4 Baseline Dosis…    37 Mest… Divorc… Withou… Callao    60.9    1.5  41.0
 8     4 3 months Dosis…    38 Mest… Divorc… Withou… Callao    61.4    1.5 109. 
 9     5 Baseline Place…    31 Mest… Single  Withou… La Mol…   64      1.5  43.0
10     5 3 months Place…    32 Mest… Single  Withou… La Mol…   58.1    1.6  56.0
# … with 96 more rows, 5 more variables: lh <dbl>, fsh <dbl>, prog <dbl>,
#   imc <dbl>, imc_cat <chr>, and abbreviated variable names ¹​married2,
#   ²​procedence
# ℹ Use `print(n = ...)` to see more rows, and `colnames()` to see all variable names

Cambiar el nombre del imc a bmi y de imc_cat bmicat

Código

data7 %>% 
  rename(
    bmi = imc,
    bmicat = imc_cat
  ) -> data8

data8

# A tibble: 106 × 16
      id time     treat    age race  married marri…¹ proce…² weight height    e2
   <dbl> <fct>    <fct>  <dbl> <chr> <fct>   <fct>   <chr>    <dbl>  <dbl> <dbl>
 1     1 Baseline Place…    33 Mest… Single  Withou… Callao    59      1.4  87.3
 2     1 3 months Place…    32 Mest… Single  Withou… Callao    59.9    1.3 210. 
 3     2 Baseline Dosis…    27 Mest… Single  Withou… Santa …   62      1.5 169. 
 4     2 3 months Dosis…    27 Mest… Single  Withou… Santa …   62.1    1.6  99.9
 5     3 Baseline Dosis…    25 Mest… Single  Withou… Callao    62      1.6  78.8
 6     3 3 months Dosis…    25 Mest… Single  Withou… Callao    60      1.6 155. 
 7     4 Baseline Dosis…    37 Mest… Divorc… Withou… Callao    60.9    1.5  41.0
 8     4 3 months Dosis…    38 Mest… Divorc… Withou… Callao    61.4    1.5 109. 
 9     5 Baseline Place…    31 Mest… Single  Withou… La Mol…   64      1.5  43.0
10     5 3 months Place…    32 Mest… Single  Withou… La Mol…   58.1    1.6  56.0
# … with 96 more rows, 5 more variables: lh <dbl>, fsh <dbl>, prog <dbl>,
#   bmi <dbl>, bmicat <chr>, and abbreviated variable names ¹​married2,
#   ²​procedence
# ℹ Use `print(n = ...)` to see more rows, and `colnames()` to see all variable names
…
Seleccionar, id, peso, tratamiento y imc y reordenarlo segun imc de mayor a menor:

Código

data8 %>% 
  select(id, weight, treat, bmi) %>% 
  arrange(desc(bmi))

# A tibble: 106 × 4
      id weight treat     bmi
   <dbl>  <dbl> <fct>   <dbl>
 1    41   91.9 Dosis 1  40.8
 2    50   71.7 Dosis 2  36.6
 3    36   81   Dosis 1  36  
 4     1   59.9 Placebo  35.4
 5    53   64.9 Dosis 2  33.1
 6    34   72.6 Dosis 1  32.3
 7    41   92.1 Dosis 1  31.9
 8    28   81.5 Dosis 2  31.8
 9    12   68   Dosis 2  30.2
10    12   68   Dosis 2  30.2
# … with 96 more rows
# ℹ Use `print(n = ...)` to see more rows
…
